﻿Material;Diametro;Peso;Densidad;Precio
ER70S-6;0.8;15;5.06;132
ER70S-6;0.9;15;5.06;125.5
ER70S-6;1;20;5.06;111
ER70S-6;1.2;20;5.06;103.5
ER70S-6;1.6;20;5.06;100
E-71T-1C;0.9;15;6.18;125
E-71T-1C;1.2;20;6.18;100

